Name,#votes,Committee 1
[47879]Marco De Col (FDP),1683,
[48624]Monika Rüegger-Hurschler (SVP),5412,1
[48936]Peter Krummenacher (CVP),5325,
[50303]Mirjam Hostetmann (JUSO),424,
[50556]Luke Gasser (LG),1675,
