Name,#votes,Committee 1
[46573]Mireille Tissot-Daguette (jglp),1691,
[46574]Maxime Auchlin (jglp),1117,
[46575]Marius Gobet (jglp),810,
[46577]Noura Kayal (jglp),1028,
[46583]Julien Noyer (glp),2868,
[46589]Fabien Fivaz (Grüne),10753,
[46590]Veronika Pantillon (Grüne),7955,
[46593]Sarah Pearson Perret (glp),2969,
[46599]Pierre-Yves Jeannin (glp),2451,
[46600]Céline Vara (Grüne),10715,1
[46602]Roby Tschopp (Grüne),6381,
[46603]Jennifer Hirter (glp),2694,
[47202]Joseph Mucaria (CVP),2257,
[47203]Jan Homberger (CVP),1404,
[47204]Nathalie Schallenberger (CVP),2655,
[47576]Baptiste Hurni (SP),8693,1
[47691]Aurélie Widmer (SP),5638,
[47701]Grégory Jaquet (SP),5153,
[48023]Philippe Bauer (FDP),9123,
[48024]Andreas Jurt (FDP),7814,
[48068]Sandra Menoud (FDP),7204,1
[48072]Damien Cottier (FDP),9343,
[48170]Quentin Di Meo (jf),1212,
[48171]Nicolas Jutzet (jf),828,
[48172]Sophie Rohrer (jf),1160,
[48173]Pierre Surdez (jf),867,
[49378]Hervé Agassis (SVP),0,
[49372]Thierry Ulrich Brechbühler (SVP),4631,
[49374]Sylvia Schulé (SVP),3633,
[49134]Denis de la Reussille (PdA),9761,1
[49135]Sarah Blum (PdA),4029,
[49136]Derya Dursun (PdA),3059,
[49137]Armin Kapetanovic (PdA),3520,
[49373]Grégoire Cario (SVP),3952,
[49375]Mikaël Dubois (SVP),1402,
[49376]Magali Junod (SVP),1122,
[49377]Yvan Perrin (SVP),5151,
[49895]Alexandre Porret (JUSO),858,
[49896]Pauline Schneider (JUSO),1161,
[49897]Zoé Nater (JUSO),1021,
[49898]Tristan Robert (JUSO),830,
[50146]Oguzhan Can (SP),5081,
[50156]José Sanchez (solid.),576,
[50157]Marianne Ebel (solid.),1023,
[50166]Dimitri Paratte (solid.),931,
[50169]Zoé Bachmann (solid.),1046,
