Name,#votes,Committee 1
[46189]Laura Kopp (glp),6269,
[46190]Claudia Huser Barmettler (glp),7429,
[46191]Roland Fischer (glp),10982,1
[46192]Riccarda Schaller (glp),7178,
[46193]Michèle Graber (glp),10539,
[46195]Markus Hess (glp),6791,
[46196]Niklaus Iten (glp),6090,
[46197]Ursula Berset (glp),7217,
[46198]Michael Töngi (Grüne),21264,1
[46199]Rahel Estermann (Grüne),11135,
[46200]Samuel Zbinden (Grüne),10601,
[46201]Korintha Bärtsch (Grüne),20871,
[46202]Monique Frey (Grüne),17840,
[46204]Hans Stutz (Grüne),8564,
[46205]Andreas Hofer (Grüne),11015,
[46206]Gina Mühlebach (Grüne),8369,
[46207]Johanna Küng (JG),1534,
[46208]Mirjam Reinhard (JG),1022,
[46210]Jona Studhalter (JG),1108,
[46211]Janna Muff (JG),1444,
[46212]Nico Che Eberli (JG),963,
[46213]Jeremias Brem (JG),1307,
[46214]Lea Eberli (JG),1544,
[46215]Jonas Heeb (JG),1525,
[46216]Jamal Risi (jf),319,
[46217]Kim Rast (jf),588,
[46218]Lukas Blaser (jf),466,
[46219]Andrea Ammann (jf),366,
[46220]Jacqueline Lang (jf),498,
[46221]Ramon Bisang (jf),516,
[46222]Jeronimo Egle (jf),304,
[46223]Thomas von Allmen (jf),423,
[46224]Matthias Erni (jf),416,
[46865]Peter Kunzmann (IP),753,
[46866]Yvonne Schwienbacher (IP),1470,
[46867]David Bussmann (IP),1171,
[47219]Elias Meier (JCVP),979,
[47220]Esther Hagmann (JCVP),693,
[47221]Joško Pekas (JCVP),344,
[47222]Valentina Milici (JCVP),702,
[47223]David Schwegler (JCVP),563,
[47224]Luca Boog (JCVP),1793,
[47248]Andreas Haas (JCVP),280,
[47249]Lara Helfenstein (JCVP),834,
[47254]Sereina Winterberg (JCVP),391,
[47257]Victor Kadlubowski (JCVP),465,
[47260]Stefan Trottmann (JCVP),386,
[47262]Joel Biner (JCVP),728,
[47264]Daniel Stadelmann (JCVP),721,
[47268]Seraina Duss (JCVP),945,
[47290]Stefanie Reinmann (EVP),1003,
[47302]Daniel Mumenthaler (EVP),1129,
[47303]Regula Büeler (EVP),1306,
[47308]Markus Müller-Birrer (EVP),813,
[47310]Konrad Kretz (EVP),595,
[47311]Tobias Reinmann (EVP),815,
[47314]Mark Bähler (EVP),726,
[47315]Claudine Tanner (EVP),849,
[47316]Thomas Renner (EVP),968,
[47771]Anna Gallati (JUSO),651,
[47772]Priya Kumar (JUSO),248,
[47773]Merlin Schwendener (JUSO),399,
[47776]Yves Bucher (JUSO),723,
[47777]Nadja Landolt (JUSO),249,
[47778]Lara Küenzi (JUSO),268,
[47779]Leander Studer (JUSO),207,
[47780]Skandar Khan (JUSO),162,
[47781]Elias Balmer (JUSO),191,
[47782]Stephanie Behrens (JUSO),118,
[47783]Rebecca Theiler (JUSO),139,
[47784]Lorena Stocker (JUSO),250,
[47785]Dennis Bucher (JUSO),130,
[47786]Sophie Karrer (JUSO),190,
[47787]Jonas Ineichen (JUSO),364,
[47788]Sandra Huwiler (JUSO),148,
[48216]Rosanna Schneider (jglp),1138,
[48217]Anna-Lena Beck (jglp),678,
[48218]Stefan Wick (jglp),1235,
[48219]Phillip Oswald (jglp),672,
[48220]Rahel Tiri (jglp),1421,
[48221]Sabrina Felder (jglp),1232,
[48222]Pascal Meyer (jglp),1446,
[48223]David Limacher (jglp),852,
[48308]Sebastian Huber (jglp),1032,
[48479]Andrea Gmür (CVP),36044,1
[48480]Christian Ineichen (CVP),22882,
[48481]Leo Müller (CVP),35577,1
[48482]Priska Wismer-Felder (CVP),27597,
[48483]Werner Baumgartner (CVP),17111,
[48485]Inge Lichtsteiner (CVP),20536,
[48486]Josef Wyss (CVP),20806,
[48487]Karin Stadelmann (CVP),20636,
[48513]Andrea Kaufmann (JCVP),897,
[48605]Sara Agner (SP),11686,
[48606]Marcel Budmiger (SP),11075,
[48607]Hasan Candan (SP),11065,
[48608]Peter Fässler (SP),9016,
[48611]Ylfete Fanaj (SP),17067,
[48612]David Roth (SP),19701,
[48613]Prisca Birrer-Heimo (SP),31363,1
[46203]Nöelle Bucher (Grüne),11005,
[49524]Räto B. Camenisch (SVP),1056,
[49184]Eveline Dahinden (SVP),213,
[50586]Herbert C. Frey (CVP),205,
[48484]Ida Glanzmann (CVP),37217,1
[50570]Yosvany Hernandez (SP),432,
[49695]Branka Kaiser (FDP),744,
[50611]Marlis Krummenacher-Feer (CVP),1544,
[49521]Erika Lauper (SVP),627,
[48673]Vroni Thalmann (SVP),32108,
[48674]Dieter Haller (SVP),22860,
[48675]Franz Grüter (SVP),40468,1
[48676]Felix Müri (SVP),31820,
[48677]Willi Knecht (SVP),27561,
[48678]Yvette Estermann (SVP),32217,1
[48679]Oliver Imfeld (SVP),23633,
[48680]Angela Lüthold-Sidler (SVP),25871,
[48681]Christian Huber (SVP),23333,
[48682]Priska Hafner (FDP),13511,
[48683]Damian Hunkeler (FDP),19132,
[48684]Jacqueline Theiler (FDP),16068,
[48685]Fabienne Brauchli (FDP),14024,
[48686]Albert Vitali (FDP),28325,1
[50532]Sibylle Lehmann (Grüne),827,
[48688]Martin Huber (FDP),14277,
[48689]Anne-Sophie Morand (FDP),14134,
[48690]Peter Schilliger (FDP),24921,
[50563]Ottilia Lütolf (SP),548,
[49185]Monika Meier (SVP),330,
[46209]Teresa Mestre (JG),1299,
[46194]Andràs Özvegyi (glp),7291,
[50613]Stefan Schärli (JCVP),5085,
[49696]Rosy Schmid (FDP),1765,
[48774]Pascal Furrer (IP),1000,
[47775]Leon Schulthess (JUSO),426,
[48687]Helen Schurtenberger (FDP),15904,
[50608]Mary Sidler (CVP),763,
[47774]Severin Stalder (JUSO),184,
[49692]Karin Supersaxo Freiburghaus (FDP),833,
[49530]Nicolas Sztia (SVP),305,
[48610]Yvonne Zemp (SP),13195,
[49191]Evelyne Zumofen (SVP),393,
[49007]Melanie Setz Isenegger (SP),10787,
[49183]Brigitte Binggeli (SVP),294,
[49186]Tamara Meyer (SVP),212,
[49187]Andrea Baumgartner (SVP),502,
[49188]Michèle Binggeli (SVP),316,
[49189]Gisela Wiedmer-Billich (SVP),201,
[49190]Lisa Zanolla (SVP),427,
[49192]Kilian Kunz (JSVP),642,
[49193]Patrick Zibung (JSVP),321,
[49194]Rahel Schnyder (JSVP),880,
[49195]Yannick Schuitemaker (JSVP),362,
[49196]David Vonlaufen (JSVP),483,
[49197]Stefan Aletz (JSVP),216,
[49198]Fabian Klein (JSVP),372,
[49199]Pascal Wyss (JSVP),301,
[49200]Pascal Räber (JSVP),304,
[49201]Andreas Solyom (JSVP),215,
[49202]Lukas Biegger (JSVP),491,
[49203]Marco Imfeld (JSVP),244,
[49204]Reto Birrer (JSVP),756,
[49205]Sven Wicki (JSVP),285,
[49520]Jörg Conrad (SVP),594,
[49522]Hans Jörg Hauser (SVP),550,
[49523]Guido Müller (SVP),764,
[49525]Roland Habermacher (SVP),683,
[49526]Bernhard Achermann (SVP),1128,
[49527]Josef Kunz (SVP),2032,
[49528]Hans Peter Bieri (SVP),618,
[49529]Karl Bachmann (SVP),131,
[49531]Peter Häberli (SVP),239,
[49532]Oliver Heeb (SVP),1022,
[49689]Susanne Heer (FDP),2052,
[49690]Karin Ruckli (FDP),1230,
[49691]Kathrin Scherer (FDP),2108,
[49693]Marion Maurer (FDP),701,
[49694]Hildegard Meier-Schöpfer (FDP),1401,
[49948]Kathrin Schelker (IP),1429,
[50267]Corina Käppeli (JCVP),1179,
[50431]Patrick Renau (glp),586,
[50432]Florian Lüthi (glp),472,
[50433]Barbara Curran-Steiner (glp),341,
[50434]Stefan Matti (glp),539,
[50435]Stephan Kyburz (glp),271,
[50531]Cyrill Wiget (Grüne),1972,
[50533]Jo Bucher (Grüne),786,
[50534]Caroline Felber (Grüne),724,
[50535]Pascal Portmann (Grüne),923,
[50537]Urban Frye (Grüne),1160,
[50538]Urs Steiger (Grüne),1096,
[50553]Gabriela Kurer (Grüne),1665,
[50557]Trudi Lötscher (SP),571,
[50558]Margrit Grünwald (SP),703,
[50559]Dorothée Kipfer (SP),328,
[50560]Andy Schneider (SP),940,
[50561]Ursula Bachmann (SP),655,
[50562]Alice Heijman (SP),348,
[50564]Oskar Mathis (SP),689,
[50565]Ingbert Kaczmarczyk (SP),1000,
[50566]Mohammed El Maghari (SP),559,
[50567]Musa Gadjiev (SP),306,
[50568]Safiullah Shahid (SP),341,
[50569]Olena Halter (SP),1024,
[50571]Milomirka Komatina (SP),810,
[50572]Daniel Mengolian (SP),1805,
[50573]Naila Luchsinger (SP),260,
[50574]Abilasa Leuenberger (SP),282,
[50575]Daniela Blättler (SP),234,
[50576]Tobias Brandner (SP),256,
[50577]Simon Koch (SP),262,
[50578]Mielikki Albeverio (SP),212,
[50580]Viktoria Aregger (CVP),849,
[50581]Martin Ruckli (CVP),385,
[50582]Hans Schwegler (CVP),839,
[50583]Urs Windler (CVP),215,
[50584]Alex Fischer (CVP),468,
[50585]Benjamin Koch (CVP),267,
[50587]Marius Fischer (CVP),1331,
[50588]Pirmin Jung (CVP),2402,
[50589]Raymond Studer (CVP),2597,
[50590]Roger Sonderegger (CVP),941,
[50591]Yvonne Hunkeler (CVP),2356,
[50592]Markus Portmann (CVP),1217,
[50593]Luzi Andreas Meyer (CVP),1119,
[50594]Markus Mächler (CVP),1009,
[50595]Markus Arnold (CVP),423,
[50596]Xaver Vogel (CVP),747,
[50597]Carlo Piani (CVP),1039,
[50598]Gerda Jung (CVP),1148,
[50599]Ramona Thalmann-Hüsler (CVP),418,
[50602]Susanne Stöckli (CVP),717,
[50603]Michaela Tschuor (CVP),1072,
[50605]Roger Zurbriggen (CVP),735,
[50606]Helen Affentranger-Aregger (CVP),1001,
[50607]Claudia Bernasconi (CVP),721,
[50609]Hanspeter Bucheli (CVP),1956,
[50610]Thomas Grüter (CVP),2042,
[50612]Markus Odermatt (CVP),2127,
[50614]Kilian Bucher (CVP),1758,
[50626]Walter Buholzer (SD),559,
[50627]Thomas Blättler (SD),665,
