Name,#votes,Committee 1
[46383]Anna Naeff (AL),1181,
[46386]Roland Müller (Grüne),1115,
[46387]Aline Iff (JG),852,
[46388]Gaétan Surber (JG),606,
[46830]Gregor Schweri (CVP),597,
[46943]Marcel Fringer (FDP),3934,
[47453]Manfred Thoma (glp),1232,
[47454]Tim Bucher (glp),441,
[47455]Luka Vojinovic (glp),512,
[47456]Ramon Göldi (glp),1383,
[47580]Martina Munz (SP),10246,1
[47581]Urs Tanner (SP),4797,
[48414]Jonathan Dotzler (FDP),229,
[48415]Gabriel Sonderegger (FDP),260,
[48614]Shendrit Sadiku (JUSO),325,
[48615]Cédric Käppler (JUSO),355,
[49366]Carmen Andrianjaramahavalisoa (EVP),405,
[46942]Claudia Ellenberger-Richli (FDP),2203,
[46384]Thomas Leuzinger (AL),741,
[46385]Regula Esther Sauter-Müller (Grüne),1542,
[46828]Thomas Theiler (CVP),0,
[49356]Rainer Schmidig (EVP),727,
[49388]Brigitte Bührer (EDU),740,
[49389]Andreas Schnetzler (EDU),1293,
[50266]Michael Kahler (JSVP),412,
[50430]Marcel Stettler (CVP),685,
[50554]Thomas Hurter (SVP),13533,1
[50555]Michael Mundt (SVP),7643,
