Name,#votes,Committee 1
[46268]Flavio Bortoluzzi (SVP),14106,
[46269]Roland Mesot (SVP),14029,
[46270]Pierre-André Page (SVP),20924,1
[46271]Emmanuel Kilchenmann (SVP),13243,
[46272]Jean-Daniel Chardonnens (SVP),13080,
[46273]Jean-François Rime (SVP),17899,
[46274]Emanuel Waeber (SVP),14008,
[46282]David Hausmann (EVP),694,
[46283]Niklaus Mosimann-Schwab (EVP),608,
[46284]Mirjam Lehmann-Ritter (EVP),955,
[46285]Karin Mrazeck (EVP),537,
[46286]Keran Kocher (EVP),456,
[46287]Ulrich Herren (EVP),586,
[46288]Konstantin Stefanov (EVP),506,
[46290]Ana Fontes Martins (glp),2846,
[46291]Adrian Gross (glp),2965,
[46292]Karine Lüthi (glp),3273,
[46297]Irene Bernhard (glp),4329,
[46298]Gisela Kilde (glp),2900,
[46299]Markus Reck (glp),3297,
[46301]Quentin Van Wynsberghe (glp),2365,
[46302]Anaïs Grandjean (jglp),1263,
[46303]Benjamin Conde (jglp),954,
[46305]Céline Werro (jglp),1241,
[46306]Maxime Lepore (jglp),1068,
[46308]Oriane Grandjean (jglp),1972,
[46310]Loris Grandjean (jglp),1558,
[46313]Julie Bernasconi (jglp),1384,
[46315]Gerhard Andrey (Grüne),14417,1
[46316]Ophélie Brodard (Grüne),8859,
[46317]Nicolas Pasquier (Grüne),9487,
[46318]Olive Haymoz (Grüne),9696,
[46319]Bruno Marmier (Grüne),8973,
[46320]Mirjam Ballmer (Grüne),11061,
[46321]Liliane Galley (Grüne),10207,
[47195]Marie-France Roth Pasquier (CVP),12344,1
[47196]Bruno Boschung (CVP),11034,
[47197]Christine Bulliard-Marbach (CVP),20400,1
[47198]Francine Defferrard (CVP),9218,
[47200]Bernhard Altermatt (CVP),7792,
[47201]Jean-Luc Mossier (CVP),7793,
[47225]Janine Aerschmann (JCVP),754,
[47226]Daniela Coelho (JCVP),416,
[47227]Tina Schwab (JCVP),828,
[47228]Marc-Antoine Dietrich (JCVP),333,
[47229]Valentin Mulder (JCVP),322,
[47231]Isabelle Sob (JCVP),459,
[47232]Jean-Thomas Vacher (JCVP),597,
[47233]Myriam Delavy (JCVP),518,
[47234]Justine Catillaz (JCVP),933,
[47235]Stephen Mengual (JCVP),328,
[47236]Adélaïde Mornod (JCVP),634,
[47242]Yannick Kilchenmann (JCVP),560,
[47243]Dominic Tschümperlin (JCVP),809,
[47244]Simon Murith (JCVP),623,
[47251]Edouard Perroud (JCVP),475,
[47252]Pierre Portmann (JCVP),512,
[47253]Nicolas Roschi (JCVP),1127,
[47258]Léo Bulliard (JCVP),932,
[47259]Emmanuel Repond (JCVP),366,
[47261]Benjamin Egger (JCVP),1518,
[47263]Sara Lenherr (JCVP),998,
[47265]Lionel Avanthay (JCVP),482,
[47266]Vesna Wicht (JCVP),555,
[47267]Aude Sallin (JCVP),913,
[47269]Blaise Fasel (JCVP),671,
[47270]Philippe Bapst (JCVP),1174,
[47271]Quentin Moënnat (JCVP),1212,
[47333]Jacques Bourgeois (FDP),19838,1
[47334]Alexandre Vonlanthen (FDP),7557,
[47335]Christoph Wieland (FDP),8966,
[47337]Raphaël Casazza (FDP),7322,
[47338]Romain Collaud (FDP),11314,
[47339]Nadine Gobet (FDP),16146,
[50411]Julie Bex (Parteilos),0,
[48644]Claudine Godat (SP),545,
[48653]Thierry Luescher (SP),182,
[47199]Anne Meyer Loetscher (CVP),8588,
[47492]Anthony Jaria (BDP),1392,
[47493]Alexandre Korkia (BDP),981,
[47494]Mathieu Gauss (BDP),1078,
[48667]Immaculée Mosoba (JUSO),1780,
[47230]Cindy Nesme (JCVP),331,
[47336]Isabelle Portmann (FDP),7088,
[48650]Seline Zeynep Sönmez-Özdemir (SP),406,
[48668]Oxel Suarez Alvarez (JUSO),904,
[47569]Ursula Schneider Schüttel (SP),17929,1
[47570]Urs Hauswirth (SP),11198,
[48659]Léo Tinguely (JUSO),1319,
[47617]Elias Moussa (SP),10746,
[47638]Nathalie Déchanez (SP),11458,
[47648]Valérie Piller Carrard (SP),20068,1
[47664]Pierre Mauron (SP),14706,
[47707]David Bonny (SP),12724,
[48645]Erwin Jutzet (SP),1824,
[48646]Paul Werthmüller (SP),563,
[48647]Afrim Balija (SP),363,
[48648]Justin Kabongi Alimasi (SP),548,
[48649]Corinne Margalhan-Ferrat (SP),492,
[48651]Veronika Biegel (SP),215,
[48652]David Bongard (SP),243,
[48654]Hannah Riemann (SP),148,
[48655]Raoul Thoos (SP),326,
[48656]Manoë Ducrest (JUSO),980,
[48657]Dalia Lamhangar (JUSO),1129,
[48658]Marie Levrat (JUSO),2683,
[48660]Philippe Pasquier (SP),1274,
[48661]Sara Rellstab (SP),345,
[48662]Andréa Wassmer (SP),1430,
[48663]Pascal Lottaz (SP),349,
[48664]Catherine Plüss (SP),1017,
[48665]Noah Fasel (JUSO),1314,
[48666]Giovanna Garghentini Python (SP),1276,
[48796]Océane Gex (jf),549,
[48797]Victoria Malecki (jf),606,
[48798]Yasmina Savoy (jf),757,
[48799]Nicolas Taverna (jf),506,
[48800]Estelle Zermatten (jf),1330,
[48801]Fabian Kuhn (jf),873,
[48802]Kilian Deillon (jf),791,
[49211]Marie-Louise Fries (CSP),2124,
[49212]Emmanuel Bichet (CSP),2273,
[49213]Sophie Tritten (CSP),2787,
[49214]Gérald Collaud (CSP),2066,
[49215]Benoît Rey (CSP),4334,
[49216]Anita Johner-Tschannen (CSP),3281,
[49217]Diego Frieden (CSP),2106,
[49309]Marc Bachmann (EDU),1169,
[49310]Walter Gertsch (EDU),1112,
[49311]Ivan Thévoz (EDU),1676,
[50327]Oliver Rumo (JSVP),718,
[50328]Chantal Tobler (JSVP),823,
[50329]Timon Gavallet (JSVP),445,
[50330]Anthony Marchand (JSVP),793,
[50331]Mélissa Gerber (JSVP),978,
[50332]Julien Doutaz (JSVP),891,
[50333]Stiobban Godel (JSVP),747,
[50408]Cléa Voisard (Parteilos),1613,
[50409]Maxence Kolly (Parteilos),799,
[50410]Fabrice Bourquenoud (Parteilos),877,
[50412]Chloé Senn (Parteilos),1208,
[50413]Armando Hauser (Parteilos),710,
[50414]Bastien Racca (Parteilos),825,
[50528]Jacqueline von Mühlenen (UBB),307,
[50529]Jean-Bernard Fasel (UBB),447,
[50530]Narcisse Niclass (UBB),286,
[50552]Claudio Rugo (KP),962,
