Name,#votes,Committee 1
[46515]Silvio Mittempergher (EVP),338,
[46516]Frédéric Nicolet (EVP),296,
[46517]Erica Hennequin (Grüne),2894,
[47285]Tristan Davila (JG),765,
[47286]Jordan Gaignat (JG),760,
[47575]Pierre-Alain Fridez (SP),6487,1
[47665]Loïc Dobler (SP),3673,
[47712]Irène Donzé (FDP),1311,
[47713]Anael Lovis (FDP),210,
[47714]Anne Sulliger (FDP),312,
[47715]Gaëtane Voirol (FDP),519,
[47716]Nicolas Kocher (FDP),317,
[47717]Ernest Gerber (FDP),1355,
[48599]Jean-Paul Gschwind (CVP),4622,1
[48600]Sébastien Piquerez (JCVP),454,
[48601]Karine Génesta-Nagel (JCVP),680,
[48602]François Monin (JCVP),890,
[48603]Anne Froidevaux (CVP),3214,
[48604]Jessica Wiser (JCVP),166,
[46518]Céline Robert-Charrue Linder (Grüne),2546,
[48807]Frédéric Lovis (PCSI),1093,
[48808]Géraldine Beuchat (PCSI),834,
[48809]Suzanne Maitre (PCSI),680,
[48810]Aurore Boillat (PCSI),252,
[48811]Thomas Schaffter (PCSI),1172,
[48812]Julien Berthold (PCSI),239,
[48898]Elodie Jobin (JSVP),262,
[48899]Kilian Kaufmann (JSVP),325,
[48900]John Moser (SVP),1215,
[48901]Thierry Froidevaux (SVP),1021,
[48902]Thomas Stettler (SVP),2172,
[48903]Yves Gigon (SVP),1413,
[49899]Joakim Martins (JUSO),680,
[49900]Leïla Hanini (JUSO),1131,
