Name,#votes,Committee 1
[46358]Benedikt Mattmüller (EVP),1005,
[46359]Thomas Widmer-Huber (EVP),1051,
[46360]Marijan Duspara (JSVP),130,
[46361]Juan P. Tribelhorn (JSVP),149,
[46363]Carla Schaubhut (jglp),568,
[46365]Rene Benjamin Schweizer (jglp),171,
[46367]Rebecca Stankowski-Jeker (EVP),956,
[46368]Emmanuel Ullmann (glp),1840,
[46369]David Trachsel (JSVP),235,
[46370]Berfin Tuzcu (JG),1026,
[46371]Reja Wyss (JG),1034,
[46372]Joshua Lutz (JSVP),138,
[46373]Raffaela Hanauer (JG),1211,
[46374]Katja Christ (glp),3816,1
[46375]Brigitte Gysin (EVP),1277,
[46376]Esther Keller (glp),3449,
[46377]Dieter Burkhard (glp),2156,
[46378]Laura Schwab (JG),1027,
[46379]Laetitia Block (JSVP),286,
[46380]David Wüest-Rudin (glp),2381,
[46381]Christoph Hochuli (EVP),1063,
[46382]Levent Morandini (jglp),201,
[46860]Rosmarie Wydler-Wälti (IP),505,
[46861]Martin Vosseler (IP),1249,
[46862]Bastiaan Frich (IP),833,
[46863]Tilla Künzli (IP),746,
[46864]Dominique Lüdi (IP),982,
[46926]Thomas Kessler (FDP),3468,
[46927]Corinna Zigerli (FDP),163,
[46981]Luca Urgese (FDP),3171,
[46992]Christine Mumenthaler (FDP),173,
[46995]Santuzza Bianchi (FDP),150,
[47003]Dominique Martin (FDP),1894,
[47004]Christian Egeler (FDP),3592,
[47055]Sibel Arslan (BastA!),13582,1
[47056]Lea Steinle (Grüne),6678,
[47057]Oliver Thommen (Grüne),4778,
[47058]Tonja Zürcher (BastA!),5912,
[47060]Heidi Mück (BastA!),1686,
[47061]Michael Wüthrich (Grüne),1083,
[47062]Anita Lachenmeier (Grüne),886,
[47063]Patrizia Bernasconi (BastA!),968,
[47064]Thomas Grossenbacher (Grüne),1001,
[47156]Daniel Albietz (CVP),1860,
[47157]Balz Herter (CVP),2243,
[47159]Patrick Huber (CVP),1414,
[46364]Martin Ulrich Betschart (jglp),232,
[47155]Manuela Brenneis (CVP),1437,
[49983]Seyran Dilekci (JUSO),707,
[46362]Victoria Grüninger (jglp),273,
[47059]Vergeat Jo (Grüne),5106,
[47158]Andrea Elisabeth Knellwolf (CVP),1993,
[48964]Broennimann Lara (jf),136,
[48963]Gaugler Leon (jf),122,
[48966]Borner Michelle (jf),137,
[48965]Rotzler Nicolas (jf),116,
[47024]Karin Sartorius (FDP),208,
[48580]Helen Schai (CVP),366,
[47025]Carla Sorato (FDP),184,
[48962]Hell Titus (jf),191,
[48925]Heinrich Vischer (LDP),5037,
[49049]Luzia Zuber (SVP),181,
[47568]Sarah Wyss (SP),14332,
[47614]Beat Jans (SP),21869,1
[47637]Eva Herzog (SP),18210,1
[47645]Mustafa Atici (SP),15310,
[47697]Christian von Wartburg (SP),11442,
[47997]Sebastian Frehner (SVP),7344,
[47998]Pascal Brenneisen (SVP),6025,
[48054]Gianna Hablützel-Bürki (SVP),5538,
[48056]Eduard Rutschmann (SVP),5706,
[48057]Felix Wehrli (SVP),5313,
[48321]Jasna Milanovic (SVP),190,
[48322]Aleksandar Milanovic (SVP),109,
[48323]Bozidar Nikolic (SVP),127,
[48324]Marija Stosic (SVP),98,
[48325]Lidija Trailovic (SVP),139,
[48576]Martin Cron (CVP),375,
[48577]Roland Frank (CVP),353,
[48578]Beatrice Isler (CVP),656,
[48579]Paul Rüst (CVP),331,
[48581]Sara Murray (JCVP),204,
[48582]Lukas Füeg (JCVP),115,
[48583]Marco Natoli (JCVP),126,
[48584]Tiziana Conti (JCVP),456,
[48585]Bojan Lutz (JCVP),97,
[48924]Daniel Seiler (FDP),2106,
[48926]Christoph Eymann (LDP),13220,1
[48927]Patricia von Falkenstein (LDP),9363,
[48928]Raoul Furlano (LDP),5753,
[48929]Anna Götenstedt (LDP),4021,
[48930]Emélie Dunn (jLDP),379,
[48931]Benjamin von Falkenstein (jLDP),232,
[48932]Michael Hug (jLDP),207,
[48933]Benjamin Grob (jLDP),113,
[48934]Adrienne Strahm (jLDP),128,
[48937]Simon Fankhauser (JGBNW),892,
[49047]Iris Pantaleoni Grob (SVP),132,
[49048]Romy Tschui (SVP),103,
[49050]Cindy Schütz (SVP),138,
[49051]Daniela Stumpf (SVP),199,
[49697]Stephan Schiesser (LDP),376,
[49698]Nicole Strahm-Lavanchy (LDP),248,
[49699]Anselmo Renz (LDP),276,
[49700]Daniel Hettich (LDP),522,
[49701]Lydia Isler-Christ (LDP),453,
[49858]Luzian Messina (EDU),123,
[49859]Judith Vera Bützberger (EDU),131,
[49860]Markus Grob (EDU),171,
[49861]Roland Herzig (EDU),201,
[49862]Jean-Aloys von Orelli (EDU),112,
[49976]Angus Duffy (JUSO),178,
[49977]Jessica Brandenburger (JUSO),577,
[49978]Philipp Schuler (JUSO),284,
[49979]Renate Takacs (JUSO),292,
[49980]Julia Baumgartner (JUSO),570,
[49981]Lucas Wirz (JUSO),176,
[49982]Nicolas Eichenberger (JUSO),236,
[49984]Livia Kläui (JUSO),451,
[49985]Nino Russano (JUSO),304,
[50178]Hubert Ackermann (BDP),424,
[50180]Willi Dzodic (BDP),145,
[50200]Mike Schaffner (Piraten),525,
[50201]Barbara Seiler (Piraten),331,
[50202]Jonas Witmer (Piraten),322,
[50335]René Burger (BDP),237,
[50524]Michel Schielly (BDP),167,
