Name,#votes,Committee 1
[46241]Brigitte Wenzin Widmer (SVP),4260,
[46242]Jennifer Germann (SVP),346,
[46243]Martin Schuler (SVP),720,
[46244]Adrian Risi (SVP),2372,
[46245]Jeffrey Illi (SVP),369,
[46246]Thomas Dubach (SVP),511,
[46247]Thomas Werner (SVP),6031,
[46248]Niko Trlin (SVP),392,
[46249]Thomas Aeschi (SVP),15359,1
[46250]Eveline-Liliane Wüthrich (EVP),316,
[46251]Mathias Bürki (EVP),395,
[46252]Christoph Tanner (EVP),241,
[46253]Stefan W. Huber (glp),1289,
[46254]Nicole Zweifel (glp),2317,
[46255]Sandra Moebus (glp),1756,
[46256]Alena Mächler (jglp),372,
[46257]Nils Jacobi (jglp),176,
[46258]Klemens Iten (jglp),528,
[46259]Trix Gubser (ALG),242,
[46260]Paul Iten (ALG),208,
[46261]Rita Hofer-Kühne (ALG),488,
[46262]Manuela Weichelt-Picard (ALG),6292,1
[46263]Vroni Straub-Müller (CSP),3929,
[46264]Andreas Lustenberger (ALG),5730,
[46265]Stéphanie Vuichard (ALG),955,
[46266]Tabea Zimmermann Gibson (ALG),1448,
[46267]Anastas Odermatt (ALG),587,
[47179]Kurt Balmer (CVP),2341,
[47180]Gerhard Pfister (CVP),13872,1
[47181]Laura Dittli (CVP),4852,
[47183]Manuela Leemann (CVP),2093,
[47184]Fabienne Roschi (CVP),307,
[47185]Mirjam Arnold-Herrmann (CVP),477,
[47186]Pirmin Andermatt (CVP),1137,
[47187]Christine Blättler-Müller (CVP),554,
[47188]Isabelle Menzi (CVP),461,
[47287]Julia Jana Küng (JG),443,
[47288]Luzian Franzini (JG),821,
[47289]Michèle Willimann (JG),691,
[48528]Lynn Mösch (JCVP),436,
[48529]Peter Niederberger (JCVP),298,
[48551]Olivia Bühlmann (JCVP),666,
[48775]Armin Jans (SP),296,
[48776]Jeannette Simeon-Dubach (SP),223,
[48777]Dolfi Müller (SP),2022,
[48778]Eusebius Spescha (SP),507,
[48779]Fabian Freimann (SP),241,
[48780]Beat Iten (SP),251,
[48781]Oliver Ranger (SP),197,
[48782]Guido Suter (SP),241,
[48783]Virginia Köpfli (SP),251,
[48784]Simone Hutter (SP),420,
[48785]Christian Hegglin (SP),402,
[48786]Christina Bürgi Dellsperger (SP),850,
[48787]Anna Spescha (JUSO),247,
[48788]Isabel Liniger (SP),770,
[48789]Barbara Gysel (SP),2095,
[48790]Sofia Zouhir (JUSO),131,
[48791]Jérôme Peter (SP),284,
[48792]Rupan Sivaganesan (SP),504,
[48793]Alois Gössi (SP),368,
[48794]Urs Bertschi (SP),420,
[48795]Ronahi Yener (JUSO),141,
[49091]Karen Umbach (FDP),4704,
[49092]Cédric Schmid (FDP),972,
[49093]Claudia Benninger (FDP),1962,
[49094]Sussi Hodel (FDP),2088,
[49095]Gian Brun (FDP),1130,
[49096]Patrick Mollet (FDP),3024,
[49312]Rosemarie Fähndrich (ALG),135,
[49313]Tekla Hahin (ALG),130,
[49314]Esther Haas (ALG),277,
[49642]Beda Schlumpf (FDP),990,
[49643]Gilbert Chapuis (FDP),362,
[49644]Rainer Leemann (FDP),1610,
