Name,#votes,Committee 1
[46276]Chris van den Broeke (BDP),811,
[46277]Nadine Eichmann (BDP),916,
[46278]Sabrina Stuber (BDP),719,
[46279]Niklaus Fischer (BDP),963,
[46280]Roland Hartmann (BDP),888,
[46281]Reto Bolliger (BDP),637,
[46289]Mark Mettler (BDP),476,
[46293]Solomon Tesfaye (BDP),580,
[46295]Marcel Frey (BDP),328,
[46296]Christof Leimer (BDP),548,
[46300]Marie-Madeleine Wohlgensinger (BDP),283,
[46304]Thomas Pfister (JBDP),331,
[46307]Selina Di Franco (JBDP),268,
[46309]Rodrigo Gonzalez (JBDP),115,
[46311]Urs Hochstrasser (JBDP),194,
[46312]Simon Schärer (JBDP),147,
[46314]Andrea Stöckli (JBDP),257,
[46322]Andreas Wyss (jglp),893,
[46323]Sibille Keune (jglp),1593,
[46324]Alessandro Milazzo (jglp),670,
[46325]Nicole Blättler (jglp),1253,
[46326]Claude Pahud (jglp),1209,
[46327]Julia Froelicher (jglp),1217,
[46328]Maja Haus (JG),1259,
[46329]Inka Schönenberger (JG),849,
[46330]Lisa Bay (JG),1242,
[46331]Julia Hostettler (JG),1504,
[46332]Samuel Röösli (JG),776,
[46333]Jonas Ammann (JG),1103,
[46334]Janine Eggs (Grüne),4736,
[46335]Laura Gantenbein (Grüne),2556,
[46336]Raphael Schär-Sommer (Grüne),1611,
[46337]Kevin Schwizgebel (jf),196,
[46338]Riccardo Sturzo (jf),591,
[46339]David Häner (jf),776,
[46340]Oliver Ochsner (jf),252,
[46341]Michael Schoy (jf),375,
[46342]Dylan Ferraro (jf),322,
[46343]Melanie (Meli) Racine (jf),953,
[46345]Philipp Eng (jf),960,
[46346]David Gerke (Grüne),5911,
[46347]Myriam Frey Schär (Grüne),2414,
[46348]Simone Wyss Send (Grüne),1895,
[46349]Lukas Lohm (jf),381,
[46350]Felix Wettstein (Grüne),8099,1
[46351]Christof Schauwecker (Grüne),4388,
[46352]Jonas Kiener (Grüne),1138,
[46353]Benedikt Fürholz (jf),305,
[46354]Anna Engeler (Grüne),6026,
[46355]Barbara Wyss Flück (Grüne),6505,
[46356]Martin Schweizer (Grüne),1325,
[46357]Daniel (Dänu) Wyss (jf),239,
[46810]Muriel Jeisy-Strub (CVP),3969,
[46811]Stefan Müller-Altermatt (CVP),10974,1
[46812]Andreas Vögtli (CVP),4994,
[46813]Susanne Koch Hauser (CVP),4971,
[46814]Sandra Kolly-Altermatt (CVP),6467,
[46815]Peter Kyburz (CVP),3928,
[46816]Lara Christina Alkan (JCVP),1324,
[46817]Rahel Fluri (JCVP),805,
[46818]Janine Graber (JCVP),827,
[46819]Simon Hafner (JCVP),751,
[46820]Vladlena Denysova (JCVP),442,
[46821]Joël Müller (JCVP),769,
[46822]Boris Lisser (JCVP),438,
[46823]Therese Schenker (JCVP),773,
[46824]Robin Schmid (JCVP),780,
[46825]Bartolomeo Vinci (JCVP),385,
[46826]Andrea Heiri (JCVP),1055,
[46827]Rahel Lagler (JCVP),562,
[46944]Kurt Fluri (FDP),17787,1
[46945]François Scheidegger (FDP),6651,
[46946]Johanna Bartholdi (FDP),7574,
[46947]Roman Baumann Lorant (FDP),2314,
[46948]Reto Grolimund (FDP),3506,
[46949]Stefan Nünlist (FDP),6522,
[46950]David Plüss (FDP),3095,
[46951]Kuno Tschumi (FDP),2852,
[46977]Markus Spielmann (FDP),6921,
[46978]Peter Hodel (FDP),7040,
[47005]Christian Thalmann (FDP),5843,
[47023]Karin Büttler-Spielmann (FDP),9019,
[47291]André Wyss (EVP),1202,
[47292]Elia Leiser (EVP),1252,
[47293]Ferenkeh Tarawally (EVP),790,
[47294]Nathan Graf (EVP),589,
[47309]Alisha Steiner (EVP),810,
[47313]Beat Bachmann (EVP),904,
[47582]Peter Gomm (SP),7585,
[47627]Philipp Hadorn (SP),9590,
[47633]Nicole Wyss (SP),3153,
[47647]Simon Bürki-Kopp (SP),4555,
[47650]Urs Huber (SP),6943,
[47659]Florian Eberhard (SP),3033,
[47663]Nadine Vögeli (SP),4118,
[47669]Angela Kummer (SP),5714,
[47703]Franziska Roth (SP),12647,1
[47710]Soner Yaprak (SP),5035,
[48080]Walter Wobmann (SVP),22082,1
[48081]Christian Werner (SVP),14789,
[48082]Roberto Conti (SVP),12206,
[48083]Josef Fluri (SVP),15166,
[48084]Christian Imark (SVP),24339,1
[48085]Rémy Wyssmann (SVP),13589,
[48086]Christian Riesen (SVP),1138,
[48087]Georg Rütti (SVP),1151,
[48088]Stephanie Ritschard (SVP),1834,
[48089]Beat Künzli (SVP),2451,
[48090]Jacqueline Ehrsam (SVP),1827,
[48091]Markus Dick (SVP),1529,
[48092]Carsten Thürk (SVP),539,
[48093]Christoph von Felten (SVP),537,
[48094]Pascal Käser (SVP),551,
[48096]Diana Stärkle (SVP),764,
[48097]Silvia Stöckli (SVP),800,
[48178]Christian Schlatter (glp),3655,
[48179]Heiner Stähli (glp),908,
[48180]Georg Aemissegger (glp),1666,
[48185]Nicole Hirt (glp),4113,
[48186]Markus Oegerli (glp),1620,
[48187]Claudio Hug (glp),2375,
[48188]Samuel Beer (glp),1975,
[48190]Thomas Lüthi (glp),1293,
[48191]Marco Bonanno (glp),926,
[48195]Petra Maarsen (glp),2637,
[48196]Florian Sarkar (glp),922,
[48197]Jonas Walther (glp),2581,
[48488]Peter Brotschi (CVP),3528,
[48489]Michael Ochsenbein (CVP),2919,
[48490]Marie-Theres Widmer (CVP),2883,
[48491]Tamara Mühlemann Vescovi (CVP),2325,
[48492]Thomas Studer (CVP),3907,
[48493]Susan von Sury-Thomas (CVP),5228,
[48880]Vanessa Meury (JSVP),784,
[48881]Robin Kiefer (JSVP),344,
[48882]Nando Aebi (JSVP),597,
[48883]Patric Wyssmann (JSVP),291,
[48884]Mischa Wyss (JSVP),545,
[48885]Luca Hasler (JSVP),625,
[49138]Susanne Bucher (SP),865,
[49141]Hermann Fenzel (SP),418,
[49142]Rudolf Moor (SP),610,
[49143]Heinz von Arb (SP),541,
[48095]Urs Bruegger (SVP),340,
[49139]Evelyn Gmurczyk (SP),642,
[46294]Madeleine Hartmann-Fischli (BDP),709,
[49140]Hubert Jenny (SP),469,
[47656]Karin Kälin (SP),4905,
[49986]Samira-Luzia Muster (JSP),748,
[46344]Alexander Zingrich (jf),331,
[49789]Aileen Jenni (JUSO),767,
[49790]Kassandra Frey (JUSO),474,
[49791]Lars Ritter (JUSO),699,
[49792]Simon Michel (JUSO),407,
[49793]Lara Frey (JUSO),551,
[49794]Moira Walter (JUSO),912,
[49803]Matteo Blaser (SD),1239,
[49804]Jennifer Barry-Schneider (SD),1217,
[49869]Franziska Rohner (SP),5727,
[49987]Cécile Léa Send (JSP),615,
[49988]Sarah Medea Thanasis (JSP),835,
[49989]Corina Bolliger (JSP),1340,
[49990]Carla Pfister (JSP),624,
[49991]Fanny Marila Klaffke (JSP),618,
[50037]Dario Tobler (SHP),1753,
[50038]Jan Hug (SHP),1961,
