Name,#votes,Committee 1
[46229]Marcel Dettling (SVP),21716,1
[46230]Xaver Schuler (SVP),15249,
[46231]Herbert Huwiler (SVP),13043,
[46232]Pirmin Schwander (SVP),20829,1
[46233]Michael Spirig (glp),2580,
[46234]Markus E. Schilter (glp),1389,
[46236]Hanspeter Kennel (glp),1127,
[46237]Django Betschart (jglp),1167,
[46238]Severin Milles (jglp),458,
[46239]Nico Fischer (jglp),411,
[46240]Irina Zürrer (jglp),979,
[47317]Franz Betschart (CVP),212,
[47318]Ida Immoos (CVP),357,
[47319]Toni Waldis (CVP),319,
[47320]Alfred Kälin (CVP),307,
[47322]Beat Keller (CVP),5207,
[47323]Albin Fuchs (CVP),1110,
[47325]Paul Schnüriger (CVP),1196,
[47326]Silvan Ulrich (CVP),535,
[47327]Dominik Blunschy (CVP),6153,
[47328]Alois Gmür (CVP),14194,
[47330]Tara Zehnder (jf),211,
[47331]Ramon Eberdorfer (jf),138,
[47332]Micha Schnyder (jf),210,
[47583]Prisca Bünter (SP),4371,
[47584]Karin Schwiter (SP),8233,
[47585]Paul Furrer (SP),3941,
[47612]Andreas Marty (SP),4290,
[47921]Heinz Theiler (FDP),6406,
[47923]Petra Gössi (FDP),20980,1
[47924]Sibylle Ochsner (FDP),5957,
[47934]Pierre Schatt (glp),1099,
[48098]Rebekka Bamert-Hauser (EVP),424,
[48099]Simon Langhart (EVP),247,
[48101]Peter Braun (EVP),224,
[48514]Raphael Seunig (JCVP),334,
[48515]Alexandra Kessler (JCVP),872,
[48516]Sabrina Meier (JCVP),302,
[48803]Ivo Husi (FDP),669,
[48805]René Knobel (FDP),935,
[48939]Amanda Schneller (JUSO),300,
[48940]Anja Ulrich (Parteilos),482,
[48941]Noah Beeler (JUSO),425,
[48942]Thomas Büeler (JUSO),438,
[48943]Hugo Abegg (SP),548,
[48944]Kathrin Ziltener (SP),270,
[48945]Toni Studer (SP),284,
[48946]Brigitte Waser (SP),306,
[48947]Doro Portmann (SP),245,
[48948]Erwin Huber (SP),301,
[48949]Karl Seeholzer (SP),205,
[48950]Ursula Keller (SP),281,
[48951]Kushtrim Berisha (SP),534,
[48952]Alessandra Zaccone (SP),346,
[48953]Leonora Muji (SP),358,
[48954]Robert Henrik von Dewitz (SP),218,
[49008]Lydia Opilik (Parteilos),401,
[49009]Oliver Meckmann (SP),327,
[49010]Lukas Beeler (Parteilos),241,
[49011]Verena Vanomsen (SP),433,
[49206]Samuel Lütolf (JSVP),1145,
[49207]Lukas-Fritz Hüppin (JSVP),825,
[49208]Miguel Casas (JSVP),557,
[49209]Jan Huwiler (JSVP),597,
[49400]Luca Steiner (Grüne),1502,
[49401]David Heinzer (Grüne),1314,
[49402]Doris Elmer (Grüne),1348,
[49403]Nadine Da Cruz (Grüne),1107,
[47329]Fabian Ab Yberg (jf),152,
[47321]Christina Baumann (CVP),3602,1
[48806]Nadja Camenzind (FDP),615,
[49637]Willi Källin (FDP),308,
[48100]Andrina Mathys (EVP),306,
[47920]Marlene Müller (FDP),5566,
[47324]Sandro Patierno (CVP),1594,
[48804]Andrea Schelbert (FDP),490,
[48517]Corinne Anna Schnyder (JCVP),451,
[49634]René Baggenstos (FDP),534,
[49635]Urs Rhyner (FDP),787,
[49636]Daniel von Burg (FDP),550,
[49638]Angela Hess-Christen (FDP),658,
[49639]Sebastian Spalinger (FDP),326,
[49640]Reto Keller (FDP),367,
[49641]Markus Diethelm (FDP),197,
