<svg xmlns="http://www.w3.org/2000/svg" width="37.34" height="53.817" viewBox="0 0 37.34 53.817">
  <path id="age" d="M69.56,11.013a5.506,5.506,0,1,0-5.506-5.506A5.513,5.513,0,0,0,69.56,11.013Zm0-8.372A2.865,2.865,0,1,1,66.7,5.506,2.869,2.869,0,0,1,69.56,2.641Zm-1.895,49.82q0,.017,0,.034a1.321,1.321,0,0,1-1.321,1.321H62.777a1.321,1.321,0,0,1,0-2.641h2.247v-11.9a1.321,1.321,0,0,1,2.641,0V52.461ZM66.494,22.52V32.875h6.133V22.52a1.321,1.321,0,1,1,2.641,0V34.2a1.32,1.32,0,0,1-1.321,1.321H65.174A1.32,1.32,0,0,1,63.853,34.2V22.52a1.32,1.32,0,1,1,2.641,0ZM92.67,26.625a4.067,4.067,0,0,0-6.848.525l-3.81-6.661c-2.049-3.583-5.087-7.695-10.43-7.695H67.538c-5.65,0-7.4,4.59-8.229,8.043L56.183,33.888a1.321,1.321,0,0,0,2.569.615l3.126-13.051c.73-3.048,1.773-4.808,3.4-5.568l3.071,7.157a1.315,1.315,0,0,0,.3.429h0l0,0a1.311,1.311,0,0,0,.313.223h0c.039.02.079.038.12.054h0a1.313,1.313,0,0,0,.478.09h0a1.316,1.316,0,0,0,.519-.107H70.1a1.314,1.314,0,0,0,.4-.278h0a1.313,1.313,0,0,0,.246-.351h0v0c.009-.018.016-.036.024-.053l3.1-7.218c2.113.756,3.947,2.66,5.847,5.981l5.3,9.261L81.974,52.309a1.321,1.321,0,1,0,2.614.374l3.073-21.46a1.327,1.327,0,0,0,.062-.431L88,28.862a1.43,1.43,0,0,1,2.831.405,1.321,1.321,0,0,0,2.614.374A4.046,4.046,0,0,0,92.67,26.625ZM69.56,19.17l-1.6-3.736h3.205Zm8.1,33.325a1.32,1.32,0,0,1-1.321,1.321H72.775A1.32,1.32,0,0,1,71.455,52.5V39.276a1.321,1.321,0,1,1,2.641,0v11.9h2.248A1.321,1.321,0,0,1,77.664,52.5Z" transform="translate(-56.147)" fill="#2d43b2"/>
</svg>
