<svg id="lieu" xmlns="http://www.w3.org/2000/svg" width="39.463" height="46.949" viewBox="0 0 39.463 46.949">
  <path id="Tracé_36" data-name="Tracé 36" d="M22.831,48.492A1.641,1.641,0,0,1,21.656,48L8.886,35.234a19.731,19.731,0,1,1,27.89,0L24.007,48a1.641,1.641,0,0,1-1.175.488Zm0-43.609a16.406,16.406,0,0,0-11.6,28l11.6,11.6,11.6-11.6a16.406,16.406,0,0,0-11.6-28Z" transform="translate(-3.1 -1.544)" fill="#2d43b2"/>
  <path id="Tracé_37" data-name="Tracé 37" d="M16.564,22.878a8.314,8.314,0,1,1,8.314-8.314,8.314,8.314,0,0,1-8.314,8.314Zm0-13.3a4.988,4.988,0,1,0,4.988,4.988A4.988,4.988,0,0,0,16.564,9.576Z" transform="translate(3.168 4.184)" fill="#2d43b2"/>
</svg>
