[
    {
        "Name": "[47820]Roger Köppel (SVP)",
        "#votes": "121098",
        "Committee 1": "1",
        "id": "47820",
        "suggestions": [
            "47820"
        ]
    },
    {
        "Name": "[47821]Gregor Rutz (SVP)",
        "#votes": "120722",
        "Committee 1": "1",
        "id": "47821",
        "suggestions": [
            "47821"
        ]
    },
    {
        "Name": "[47822]Alfred (Fredi) Heer (SVP)",
        "#votes": "118987",
        "Committee 1": "1",
        "id": "47822",
        "suggestions": [
            "47822"
        ]
    },
    {
        "Name": "[47823]Thomas Matter (SVP)",
        "#votes": "115138",
        "Committee 1": "1",
        "id": "47823",
        "suggestions": [
            "47823"
        ]
    },
    {
        "Name": "[47819]Hans-Ueli Vogt (SVP)",
        "#votes": "117018",
        "Committee 1": "1",
        "id": "47819",
        "suggestions": [
            "47819"
        ]
    },
    {
        "Name": "[47816]Barbara Steinemann (SVP)",
        "#votes": "114616",
        "Committee 1": "1",
        "id": "47816",
        "suggestions": [
            "47816"
        ]
    },
    {
        "Name": "[47817]Bruno Walliser (SVP)",
        "#votes": "110660",
        "Committee 1": "1",
        "id": "47817",
        "suggestions": [
            "47817"
        ]
    },
    {
        "Name": "[47811]Mauro Tuena (SVP)",
        "#votes": "111037",
        "Committee 1": "1",
        "id": "47811",
        "suggestions": [
            "47811"
        ]
    },
    {
        "Name": "[47814]Martin Haab (SVP)",
        "#votes": "109995",
        "Committee 1": "1",
        "id": "47814",
        "suggestions": [
            "47814"
        ]
    },
    {
        "Name": "[47812]Therese Schläpfer (SVP)",
        "#votes": "110490",
        "Committee 1": "1",
        "id": "47812",
        "suggestions": [
            "47812"
        ]
    },
    {
        "Name": "[47603]Angelo Barrile (SP)",
        "#votes": "83219",
        "Committee 1": "1",
        "id": "47603",
        "suggestions": [
            "47603"
        ]
    },
    {
        "Name": "[47604]Priska Seiler Graf (SP)",
        "#votes": "88221",
        "Committee 1": "1",
        "id": "47604",
        "suggestions": [
            "47604"
        ]
    },
    {
        "Name": "[47605]Jacqueline Badran (SP)",
        "#votes": "109992",
        "Committee 1": "1",
        "id": "47605",
        "suggestions": [
            "47605"
        ]
    },
    {
        "Name": "[47606]Mattea Meyer (SP)",
        "#votes": "89270",
        "Committee 1": "1",
        "id": "47606",
        "suggestions": [
            "47606"
        ]
    },
    {
        "Name": "[47620]Min Li Marti (SP)",
        "#votes": "88371",
        "Committee 1": "1",
        "id": "47620",
        "suggestions": [
            "47620"
        ]
    },
    {
        "Name": "[47607]Fabian Molina (SP)",
        "#votes": "81905",
        "Committee 1": "1",
        "id": "47607",
        "suggestions": [
            "47607"
        ]
    },
    {
        "Name": "[47616]Céline Widmer (SP)",
        "#votes": "76598",
        "Committee 1": "1",
        "id": "47616",
        "suggestions": [
            "47616"
        ]
    },
    {
        "Name": "[48696]Doris Fiala (FDP)",
        "#votes": "71977",
        "Committee 1": "1",
        "id": "48696",
        "suggestions": [
            "48696"
        ]
    },
    {
        "Name": "[48691]Hans-Peter Portmann (FDP)",
        "#votes": "66673",
        "Committee 1": "1",
        "id": "48691",
        "suggestions": [
            "48691"
        ]
    },
    {
        "Name": "[48694]Beat Walti (FDP)",
        "#votes": "67192",
        "Committee 1": "1",
        "id": "48694",
        "suggestions": [
            "48694"
        ]
    },
    {
        "Name": "[48697]Regine Sauter (FDP)",
        "#votes": "64357",
        "Committee 1": "1",
        "id": "48697",
        "suggestions": [
            "48697"
        ]
    },
    {
        "Name": "[48695]Andri Silberschmidt (FDP)",
        "#votes": "60538",
        "Committee 1": "1",
        "id": "48695",
        "suggestions": [
            "48695"
        ]
    },
    {
        "Name": "[48129]Tiana Angelina Moser (GLP)",
        "#votes": "90226",
        "Committee 1": "1",
        "id": "48129",
        "suggestions": [
            "48129"
        ]
    },
    {
        "Name": "[48120]Martin Bäumle (GLP)",
        "#votes": "76229",
        "Committee 1": "1",
        "id": "48120",
        "suggestions": [
            "48120"
        ]
    },
    {
        "Name": "[48124]Corina Gredig (GLP)",
        "#votes": "60493",
        "Committee 1": "1",
        "id": "48124",
        "suggestions": [
            "48124"
        ]
    },
    {
        "Name": "[48122]Jörg Mäder (GLP)",
        "#votes": "55718",
        "Committee 1": "1",
        "id": "48122",
        "suggestions": [
            "48122"
        ]
    },
    {
        "Name": "[48115]Judith Bellaïche (GLP)",
        "#votes": "54179",
        "Committee 1": "1",
        "id": "48115",
        "suggestions": [
            "48115"
        ]
    },
    {
        "Name": "[48134]Barbara Schaffner (GLP)",
        "#votes": "54846",
        "Committee 1": "1",
        "id": "48134",
        "suggestions": [
            "48134"
        ]
    },
    {
        "Name": "[48867]Philipp Kutter (CVP)",
        "#votes": "29107",
        "Committee 1": "1",
        "id": "48867",
        "suggestions": [
            "48867"
        ]
    },
    {
        "Name": "[45917]Katharina Prelicz-Huber (GPS)",
        "#votes": "70499",
        "Committee 1": "1",
        "id": "45917",
        "suggestions": [
            "45917"
        ]
    },
    {
        "Name": "[45918]Marionna Schlatter-Schmid (GPS)",
        "#votes": "79744",
        "Committee 1": "1",
        "id": "45918",
        "suggestions": [
            "45918"
        ]
    },
    {
        "Name": "[45919]Balthasar Glättli (GPS)",
        "#votes": "85677",
        "Committee 1": "1",
        "id": "45919",
        "suggestions": [
            "45919"
        ]
    },
    {
        "Name": "[45923]Bastien Girod (GPS)",
        "#votes": "89015",
        "Committee 1": "1",
        "id": "45923",
        "suggestions": [
            "45923"
        ]
    },
    {
        "Name": "[45928]Meret Schneider (GPS)",
        "#votes": "60083",
        "Committee 1": "1",
        "id": "45928",
        "suggestions": [
            "45928"
        ]
    },
    {
        "Name": "[45808]Niklaus (Nik) Gugger (EVP)",
        "#votes": "26059",
        "Committee 1": "1",
        "id": "45808",
        "suggestions": [
            "45808"
        ]
    },
    {
        "Name": "[48342]Andreas Aebi (SVP)",
        "#votes": "104955",
        "Committee 1": "1",
        "id": "48342",
        "suggestions": [
            "48342"
        ]
    },
    {
        "Name": "[48343]Andrea Geissbühler (SVP)",
        "#votes": "94768",
        "Committee 1": "1",
        "id": "48343",
        "suggestions": [
            "48343"
        ]
    },
    {
        "Name": "[48333]Erich Hess (SVP)",
        "#votes": "99481",
        "Committee 1": "1",
        "id": "48333",
        "suggestions": [
            "48333"
        ]
    },
    {
        "Name": "[48340]Nadja Pieren (SVP)",
        "#votes": "102467",
        "Committee 1": "1",
        "id": "48340",
        "suggestions": [
            "48340"
        ]
    },
    {
        "Name": "[50379]Albert Rösti (SVP)",
        "#votes": "128252",
        "Committee 1": "1",
        "id": "50379",
        "suggestions": [
            "50379"
        ]
    },
    {
        "Name": "[48336]Werner Salzmann (SVP)",
        "#votes": "120973",
        "Committee 1": "1",
        "id": "48336",
        "suggestions": [
            "48336"
        ]
    },
    {
        "Name": "[48327]Erich von Siebenthal (SVP)",
        "#votes": "101660",
        "Committee 1": "1",
        "id": "48327",
        "suggestions": []
    },
    {
        "Name": "[47508]Nadine Masshardt (SP)",
        "#votes": "68265",
        "Committee 1": "1",
        "id": "47508",
        "suggestions": [
            "47508"
        ]
    },
    {
        "Name": "[47501]Flavia Wasserfallen (SP)",
        "#votes": "62891",
        "Committee 1": "1",
        "id": "47501",
        "suggestions": [
            "47501"
        ]
    },
    {
        "Name": "[47559]Tamara Funiciello (SP)",
        "#votes": "46668",
        "Committee 1": "1",
        "id": "47559",
        "suggestions": [
            "47559"
        ]
    },
    {
        "Name": "[47503]Matthias Aebischer (SP)",
        "#votes": "63397",
        "Committee 1": "1",
        "id": "47503",
        "suggestions": [
            "47503"
        ]
    },
    {
        "Name": "[45973]Lorenz Hess (BDP)",
        "#votes": "49352",
        "Committee 1": "1",
        "id": "45973",
        "suggestions": [
            "45973"
        ]
    },
    {
        "Name": "[45978]Beatrice Simon (BDP)",
        "#votes": "52612",
        "Committee 1": "1",
        "id": "45978",
        "suggestions": [
            "45978"
        ]
    },
    {
        "Name": "[46973]Christa Markwalder (FDP)",
        "#votes": "66264",
        "Committee 1": "1",
        "id": "46973",
        "suggestions": [
            "46973"
        ]
    },
    {
        "Name": "[47008]Christian Wasserfallen (FDP)",
        "#votes": "57155",
        "Committee 1": "1",
        "id": "47008",
        "suggestions": [
            "47008"
        ]
    },
    {
        "Name": "[46141]Regula Rytz (GPS)",
        "#votes": "93747",
        "Committee 1": "1",
        "id": "46141",
        "suggestions": [
            "46141"
        ]
    },
    {
        "Name": "[46142]Aline Trede (GPS)",
        "#votes": "69964",
        "Committee 1": "1",
        "id": "46142",
        "suggestions": [
            "46142"
        ]
    },
    {
        "Name": "[46157]Christine Badertscher (GPS)",
        "#votes": "45125",
        "Committee 1": "1",
        "id": "46157",
        "suggestions": [
            "46157"
        ]
    },
    {
        "Name": "[46163]Kilian Baumann (GPS)",
        "#votes": "47311",
        "Committee 1": "1",
        "id": "46163",
        "suggestions": [
            "46163"
        ]
    },
    {
        "Name": "[46098]Jürg Grossen (GLP)",
        "#votes": "57328",
        "Committee 1": "1",
        "id": "46098",
        "suggestions": [
            "46098"
        ]
    },
    {
        "Name": "[46102]Kathrin Bertschy (GLP)",
        "#votes": "58343",
        "Committee 1": "1",
        "id": "46102",
        "suggestions": [
            "46102"
        ]
    },
    {
        "Name": "[46112]Melanie Mettler (GLP)",
        "#votes": "25395",
        "Committee 1": "1",
        "id": "46112",
        "suggestions": [
            "46112"
        ]
    },
    {
        "Name": "[46032]Marianne Streiff (EVP)",
        "#votes": "29239",
        "Committee 1": "1",
        "id": "46032",
        "suggestions": [
            "46032"
        ]
    },
    {
        "Name": "[45959]Andreas Gafner (EDU)",
        "#votes": "13885",
        "Committee 1": "1",
        "id": "45959",
        "suggestions": [
            "45959"
        ]
    },
    {
        "Name": "[46198]Michael Töngi (GPS)",
        "#votes": "21264",
        "Committee 1": "1",
        "id": "46198",
        "suggestions": [
            "46198"
        ]
    },
    {
        "Name": "[48678]Yvette Estermann (SVP)",
        "#votes": "32217",
        "Committee 1": "1",
        "id": "48678",
        "suggestions": [
            "48678"
        ]
    },
    {
        "Name": "[48675]Franz Grüter (SVP)",
        "#votes": "40468",
        "Committee 1": "1",
        "id": "48675",
        "suggestions": [
            "48675"
        ]
    },
    {
        "Name": "[48613]Prisca Birrer-Heimo (SP)",
        "#votes": "31363",
        "Committee 1": "1",
        "id": "48613",
        "suggestions": [
            "48613"
        ]
    },
    {
        "Name": "[46191]Roland Fischer (GLP)",
        "#votes": "10982",
        "Committee 1": "1",
        "id": "46191",
        "suggestions": [
            "46191"
        ]
    },
    {
        "Name": "[48484]Ida Glanzmann-Hunkeler (CVP)",
        "#votes": "37217",
        "Committee 1": "1",
        "id": "48484",
        "suggestions": []
    },
    {
        "Name": "[48479]Andrea Gmür (CVP)",
        "#votes": "36044",
        "Committee 1": "1",
        "id": "48479",
        "suggestions": [
            "48479"
        ]
    },
    {
        "Name": "[48481]Leo Müller (CVP)",
        "#votes": "35577",
        "Committee 1": "1",
        "id": "48481",
        "suggestions": [
            "48481"
        ]
    },
    {
        "Name": "[48686]Albert Vitali (FDP)",
        "#votes": "28325",
        "Committee 1": "1",
        "id": "48686",
        "suggestions": [
            "48686"
        ]
    },
    {
        "Name": "[48556]Simon Stadler (CVP)",
        "#votes": "4685",
        "Committee 1": "1",
        "id": "48556",
        "suggestions": [
            "48556"
        ]
    },
    {
        "Name": "[47328]Alois Gmür (CVP)",
        "#votes": "14194",
        "Committee 1": "1",
        "id": "47328",
        "suggestions": [
            "47328"
        ]
    },
    {
        "Name": "[47923]Petra Gössi (FDP)",
        "#votes": "20980",
        "Committee 1": "1",
        "id": "47923",
        "suggestions": [
            "47923"
        ]
    },
    {
        "Name": "[46232]Pirmin Schwander (SVP)",
        "#votes": "20829",
        "Committee 1": "1",
        "id": "46232",
        "suggestions": [
            "46232"
        ]
    },
    {
        "Name": "[46229]Marcel Dettling (SVP)",
        "#votes": "21716",
        "Committee 1": "1",
        "id": "46229",
        "suggestions": [
            "46229"
        ]
    },
    {
        "Name": "[48624]Monika Rüegger-Hurschler (SVP)",
        "#votes": "5412",
        "Committee 1": "1",
        "id": "48624",
        "suggestions": [
            "48624"
        ]
    },
    {
        "Name": "[48052]Peter Keller (SVP)",
        "#votes": "9655",
        "Committee 1": "1",
        "id": "48052",
        "suggestions": [
            "48052"
        ]
    },
    {
        "Name": "[48079]Martin Landolt (BDP)",
        "#votes": "6396",
        "Committee 1": "1",
        "id": "48079",
        "suggestions": [
            "48079"
        ]
    },
    {
        "Name": "[46262]Manuela Weichelt-Picard (GPS)",
        "#votes": "6292",
        "Committee 1": "1",
        "id": "46262",
        "suggestions": [
            "46262"
        ]
    },
    {
        "Name": "[47180]Gerhard Pfister (CVP)",
        "#votes": "13872",
        "Committee 1": "1",
        "id": "47180",
        "suggestions": [
            "47180"
        ]
    },
    {
        "Name": "[46249]Thomas Aeschi (SVP)",
        "#votes": "15359",
        "Committee 1": "1",
        "id": "46249",
        "suggestions": [
            "46249"
        ]
    },
    {
        "Name": "[47197]Christine Bulliard-Marbach (CVP)",
        "#votes": "20400",
        "Committee 1": "1",
        "id": "47197",
        "suggestions": [
            "47197"
        ]
    },
    {
        "Name": "[47195]Marie-France Roth Pasquier (CVP)",
        "#votes": "12344",
        "Committee 1": "1",
        "id": "47195",
        "suggestions": [
            "47195"
        ]
    },
    {
        "Name": "[47648]Valérie Piller Carrard (SP)",
        "#votes": "20068",
        "Committee 1": "1",
        "id": "47648",
        "suggestions": [
            "47648"
        ]
    },
    {
        "Name": "[47569]Ursula Schneider Schüttel (SP)",
        "#votes": "17929",
        "Committee 1": "1",
        "id": "47569",
        "suggestions": [
            "47569"
        ]
    },
    {
        "Name": "[47333]Jacques Bourgeois (FDP)",
        "#votes": "19838",
        "Committee 1": "1",
        "id": "47333",
        "suggestions": [
            "47333"
        ]
    },
    {
        "Name": "[46270]Pierre-André Page (SVP)",
        "#votes": "20924",
        "Committee 1": "1",
        "id": "46270",
        "suggestions": [
            "46270"
        ]
    },
    {
        "Name": "[46315]Gerhard Andrey (GPS)",
        "#votes": "14417",
        "Committee 1": "1",
        "id": "46315",
        "suggestions": [
            "46315"
        ]
    },
    {
        "Name": "[48080]Walter Wobmann (SVP)",
        "#votes": "22082",
        "Committee 1": "1",
        "id": "48080",
        "suggestions": [
            "47910",
            "48080"
        ]
    },
    {
        "Name": "[48084]Christian Imark (SVP)",
        "#votes": "24339",
        "Committee 1": "1",
        "id": "48084",
        "suggestions": [
            "48084"
        ]
    },
    {
        "Name": "[46811]Stefan Müller-Altermatt (CVP)",
        "#votes": "10974",
        "Committee 1": "1",
        "id": "46811",
        "suggestions": [
            "46811"
        ]
    },
    {
        "Name": "[47703]Franziska Roth (SP)",
        "#votes": "12647",
        "Committee 1": "1",
        "id": "47703",
        "suggestions": [
            "47703"
        ]
    },
    {
        "Name": "[46350]Felix Wettstein (GPS)",
        "#votes": "8099",
        "Committee 1": "1",
        "id": "46350",
        "suggestions": [
            "46350"
        ]
    },
    {
        "Name": "[46944]Kurt Fluri (FDP)",
        "#votes": "17787",
        "Committee 1": "1",
        "id": "46944",
        "suggestions": [
            "46944"
        ]
    },
    {
        "Name": "[48926]Christoph Eymann (LPS)",
        "#votes": "13220",
        "Committee 1": "1",
        "id": "48926",
        "suggestions": [
            "48926"
        ]
    },
    {
        "Name": "[47637]Eva Herzog (SP)",
        "#votes": "18210",
        "Committee 1": "1",
        "id": "47637",
        "suggestions": [
            "47637"
        ]
    },
    {
        "Name": "[47614]Beat Jans (SP)",
        "#votes": "21869",
        "Committee 1": "1",
        "id": "47614",
        "suggestions": [
            "47614"
        ]
    },
    {
        "Name": "[47055]Sibel Arslan (GPS)",
        "#votes": "13582",
        "Committee 1": "1",
        "id": "47055",
        "suggestions": [
            "47055"
        ]
    },
    {
        "Name": "[46374]Katja Christ (GLP)",
        "#votes": "3816",
        "Committee 1": "1",
        "id": "46374",
        "suggestions": [
            "46374"
        ]
    },
    {
        "Name": "[46889]Daniela Schneeberger (FDP)",
        "#votes": "19071",
        "Committee 1": "1",
        "id": "46889",
        "suggestions": [
            "46889"
        ]
    },
    {
        "Name": "[47658]Samira Marti (SP)",
        "#votes": "22993",
        "Committee 1": "1",
        "id": "47658",
        "suggestions": [
            "47658"
        ]
    },
    {
        "Name": "[47646]Eric Nussbaumer (SP)",
        "#votes": "29593",
        "Committee 1": "1",
        "id": "47646",
        "suggestions": [
            "47646"
        ]
    },
    {
        "Name": "[47993]Thomas de Courten (SVP)",
        "#votes": "24498",
        "Committee 1": "1",
        "id": "47993",
        "suggestions": [
            "47993"
        ]
    },
    {
        "Name": "[48055]Sandra Sollberger (SVP)",
        "#votes": "25653",
        "Committee 1": "1",
        "id": "48055",
        "suggestions": [
            "48055"
        ]
    },
    {
        "Name": "[47152]Elisabeth Schneider-Schneiter (CVP)",
        "#votes": "13707",
        "Committee 1": "1",
        "id": "47152",
        "suggestions": [
            "47152"
        ]
    },
    {
        "Name": "[46414]Maya Graf (GPS)",
        "#votes": "27141",
        "Committee 1": "1",
        "id": "46414",
        "suggestions": [
            "46414"
        ]
    },
    {
        "Name": "[50554]Thomas Hurter (SVP)",
        "#votes": "13533",
        "Committee 1": "1",
        "id": "50554",
        "suggestions": [
            "50554"
        ]
    },
    {
        "Name": "[47580]Martina Munz (SP)",
        "#votes": "10246",
        "Committee 1": "1",
        "id": "47580",
        "suggestions": [
            "47580"
        ]
    },
    {
        "Name": "[48049]David Zuberbühler (SVP)",
        "#votes": "7720",
        "Committee 1": "1",
        "id": "48049",
        "suggestions": [
            "48049"
        ]
    },
    {
        "Name": "[50437]Thomas Rechsteiner (CVP)",
        "#votes": "2014",
        "Committee 1": "1",
        "id": "50437",
        "suggestions": [
            "50437"
        ]
    },
    {
        "Name": "[48318]Lukas Reimann (SVP)",
        "#votes": "51584",
        "Committee 1": "1",
        "id": "48318",
        "suggestions": [
            "48318"
        ]
    },
    {
        "Name": "[48312]Roland Rino Büchel (SVP)",
        "#votes": "43906",
        "Committee 1": "1",
        "id": "48312",
        "suggestions": [
            "48312"
        ]
    },
    {
        "Name": "[48309]Mike Egger (SVP)",
        "#votes": "44107",
        "Committee 1": "1",
        "id": "48309",
        "suggestions": [
            "48309"
        ]
    },
    {
        "Name": "[48320]Esther Friedli (SVP)",
        "#votes": "39540",
        "Committee 1": "1",
        "id": "48320",
        "suggestions": [
            "48320"
        ]
    },
    {
        "Name": "[46834]Markus Ritter (CVP)",
        "#votes": "31337",
        "Committee 1": "1",
        "id": "46834",
        "suggestions": [
            "46834"
        ]
    },
    {
        "Name": "[47097]Nicolo Paganini (CVP)",
        "#votes": "19230",
        "Committee 1": "1",
        "id": "47097",
        "suggestions": [
            "47097"
        ]
    },
    {
        "Name": "[47653]Barbara Gysi (SP)",
        "#votes": "29509",
        "Committee 1": "1",
        "id": "47653",
        "suggestions": [
            "47653"
        ]
    },
    {
        "Name": "[47577]Claudia Friedl (SP)",
        "#votes": "23718",
        "Committee 1": "1",
        "id": "47577",
        "suggestions": [
            "47577"
        ]
    },
    {
        "Name": "[46972]Marcel Dobler (FDP)",
        "#votes": "30775",
        "Committee 1": "1",
        "id": "46972",
        "suggestions": [
            "46972"
        ]
    },
    {
        "Name": "[46998]Susanne Vincenz-Stauffacher (FDP)",
        "#votes": "22951",
        "Committee 1": "1",
        "id": "46998",
        "suggestions": [
            "46998"
        ]
    },
    {
        "Name": "[46410]Thomas Brunner (GLP)",
        "#votes": "12506",
        "Committee 1": "1",
        "id": "46410",
        "suggestions": [
            "46410"
        ]
    },
    {
        "Name": "[46463]Franziska Ryser (GPS)",
        "#votes": "22189",
        "Committee 1": "1",
        "id": "46463",
        "suggestions": [
            "46463"
        ]
    },
    {
        "Name": "[47917]Anna Giacometti (FDP)",
        "#votes": "6932",
        "Committee 1": "1",
        "id": "47917",
        "suggestions": [
            "47917"
        ]
    },
    {
        "Name": "[47694]Jon Pult (SP)",
        "#votes": "17954",
        "Committee 1": "1",
        "id": "47694",
        "suggestions": [
            "47694"
        ]
    },
    {
        "Name": "[47706]Sandra Locher Benguerel (SP)",
        "#votes": "9567",
        "Committee 1": "1",
        "id": "47706",
        "suggestions": [
            "47706"
        ]
    },
    {
        "Name": "[47163]Martin Candinas (CVP)",
        "#votes": "23143",
        "Committee 1": "1",
        "id": "47163",
        "suggestions": [
            "47163"
        ]
    },
    {
        "Name": "[46454]Magdalena Martullo-Blocher (SVP)",
        "#votes": "23942",
        "Committee 1": "1",
        "id": "46454",
        "suggestions": [
            "46454"
        ]
    },
    {
        "Name": "[46881]Hansjörg Knecht (SVP)",
        "#votes": "73587",
        "Committee 1": "1",
        "id": "46881",
        "suggestions": [
            "46881"
        ]
    },
    {
        "Name": "[46882]Thomas Burgherr (SVP)",
        "#votes": "63155",
        "Committee 1": "1",
        "id": "46882",
        "suggestions": [
            "46882"
        ]
    },
    {
        "Name": "[46869]Andreas Glarner (SVP)",
        "#votes": "64053",
        "Committee 1": "1",
        "id": "46869",
        "suggestions": [
            "46869"
        ]
    },
    {
        "Name": "[46878]Martina Bircher (SVP)",
        "#votes": "58757",
        "Committee 1": "1",
        "id": "46878",
        "suggestions": [
            "46878"
        ]
    },
    {
        "Name": "[46877]Jean-Pierre Gallati (SVP)",
        "#votes": "55454",
        "Committee 1": "1",
        "id": "46877",
        "suggestions": [
            "46877"
        ]
    },
    {
        "Name": "[46871]Benjamin Giezendanner (SVP)",
        "#votes": "68024",
        "Committee 1": "1",
        "id": "46871",
        "suggestions": [
            "46871"
        ]
    },
    {
        "Name": "[47496]Yvonne Feri (SP)",
        "#votes": "46241",
        "Committee 1": "1",
        "id": "47496",
        "suggestions": [
            "47496"
        ]
    },
    {
        "Name": "[47525]Cédric Wermuth (SP)",
        "#votes": "47890",
        "Committee 1": "1",
        "id": "47525",
        "suggestions": [
            "47525"
        ]
    },
    {
        "Name": "[47536]Gabriela Suter (SP)",
        "#votes": "36867",
        "Committee 1": "1",
        "id": "47536",
        "suggestions": [
            "47536",
            "48148"
        ]
    },
    {
        "Name": "[47053]Thierry Burkart (FDP)",
        "#votes": "50507",
        "Committee 1": "1",
        "id": "47053",
        "suggestions": [
            "47053"
        ]
    },
    {
        "Name": "[46913]Matthias Samuel Jauslin (FDP)",
        "#votes": "29835",
        "Committee 1": "1",
        "id": "46913",
        "suggestions": [
            "46913"
        ]
    },
    {
        "Name": "[46809]Ruth Humbel (CVP)",
        "#votes": "34469",
        "Committee 1": "1",
        "id": "46809",
        "suggestions": [
            "46809"
        ]
    },
    {
        "Name": "[46808]Marianne Binder-Keller (CVP)",
        "#votes": "27202",
        "Committee 1": "1",
        "id": "46808",
        "suggestions": [
            "46808"
        ]
    },
    {
        "Name": "[46690]Irène Kälin (GPS)",
        "#votes": "34501",
        "Committee 1": "1",
        "id": "46690",
        "suggestions": [
            "46690"
        ]
    },
    {
        "Name": "[46681]Beat Flach (GLP)",
        "#votes": "25748",
        "Committee 1": "1",
        "id": "46681",
        "suggestions": [
            "46681"
        ]
    },
    {
        "Name": "[46651]Lilian Studer (EVP)",
        "#votes": "13740",
        "Committee 1": "1",
        "id": "46651",
        "suggestions": [
            "46651"
        ]
    },
    {
        "Name": "[46742]Verena Herzog (SVP)",
        "#votes": "28642",
        "Committee 1": "1",
        "id": "46742",
        "suggestions": [
            "46742"
        ]
    },
    {
        "Name": "[46774]Diana Gutjahr (SVP)",
        "#votes": "32045",
        "Committee 1": "1",
        "id": "46774",
        "suggestions": [
            "46774"
        ]
    },
    {
        "Name": "[46744]Manuel Strupler (SVP)",
        "#votes": "25635",
        "Committee 1": "1",
        "id": "46744",
        "suggestions": [
            "46744"
        ]
    },
    {
        "Name": "[47168]Christian Lohr (CVP)",
        "#votes": "19632",
        "Committee 1": "1",
        "id": "47168",
        "suggestions": [
            "47168"
        ]
    },
    {
        "Name": "[46775]Kurt Egger (GPS)",
        "#votes": "7846",
        "Committee 1": "1",
        "id": "46775",
        "suggestions": [
            "46775"
        ]
    },
    {
        "Name": "[47639]Edith Graf-Litscher (SP)",
        "#votes": "16101",
        "Committee 1": "1",
        "id": "47639",
        "suggestions": [
            "47639"
        ]
    },
    {
        "Name": "[47218]Fabio Regazzi (CVP)",
        "#votes": "25007",
        "Committee 1": "1",
        "id": "47218",
        "suggestions": [
            "47218"
        ]
    },
    {
        "Name": "[47214]Marco Romano (CVP)",
        "#votes": "24540",
        "Committee 1": "1",
        "id": "47214",
        "suggestions": [
            "47214"
        ]
    },
    {
        "Name": "[50389]Lorenzo Quadri (Lega)",
        "#votes": "23079",
        "Committee 1": "1",
        "id": "50389",
        "suggestions": [
            "50389"
        ]
    },
    {
        "Name": "[50054]Rocco Cattaneo (FDP)",
        "#votes": "26294",
        "Committee 1": "1",
        "id": "50054",
        "suggestions": [
            "50054"
        ]
    },
    {
        "Name": "[50058]Alex Farinelli (FDP)",
        "#votes": "30052",
        "Committee 1": "1",
        "id": "50058",
        "suggestions": [
            "50058"
        ]
    },
    {
        "Name": "[49320]Greta Gysin (GPS)",
        "#votes": "19969",
        "Committee 1": "1",
        "id": "49320",
        "suggestions": [
            "49320"
        ]
    },
    {
        "Name": "[47636]Marina Carobbio Guscetti (SP)",
        "#votes": "23008",
        "Committee 1": "1",
        "id": "47636",
        "suggestions": [
            "47636"
        ]
    },
    {
        "Name": "[50291]Marco Chiesa (SVP)",
        "#votes": "18912",
        "Committee 1": "1",
        "id": "50291",
        "suggestions": [
            "50291"
        ]
    },
    {
        "Name": "[47690]Ada Marra (SP)",
        "#votes": "49953",
        "Committee 1": "1",
        "id": "47690",
        "suggestions": [
            "47690"
        ]
    },
    {
        "Name": "[47672]Samuel Bendahan (SP)",
        "#votes": "37923",
        "Committee 1": "1",
        "id": "47672",
        "suggestions": [
            "47672"
        ]
    },
    {
        "Name": "[47609]Brigitte Crottaz (SP)",
        "#votes": "37755",
        "Committee 1": "1",
        "id": "47609",
        "suggestions": [
            "47609"
        ]
    },
    {
        "Name": "[47684]Roger Nordmann (SP)",
        "#votes": "45649",
        "Committee 1": "1",
        "id": "47684",
        "suggestions": [
            "47684"
        ]
    },
    {
        "Name": "[47593]Pierre-Yves Maillard (SP)",
        "#votes": "59514",
        "Committee 1": "1",
        "id": "47593",
        "suggestions": [
            "47593"
        ]
    },
    {
        "Name": "[48424]Isabelle Chevalley (GLP)",
        "#votes": "26488",
        "Committee 1": "1",
        "id": "48424",
        "suggestions": [
            "48424"
        ]
    },
    {
        "Name": "[48427]François Pointet (GLP)",
        "#votes": "13390",
        "Committee 1": "1",
        "id": "48427",
        "suggestions": [
            "48427"
        ]
    },
    {
        "Name": "[48997]Jean-Pierre Grin (SVP)",
        "#votes": "35966",
        "Committee 1": "1",
        "id": "48997",
        "suggestions": [
            "48997"
        ]
    },
    {
        "Name": "[48986]Michaël Buffat (SVP)",
        "#votes": "31677",
        "Committee 1": "1",
        "id": "48986",
        "suggestions": [
            "48986"
        ]
    },
    {
        "Name": "[48998]Jacques Nicolet (SVP)",
        "#votes": "33537",
        "Committee 1": "1",
        "id": "48998",
        "suggestions": [
            "48998"
        ]
    },
    {
        "Name": "[46898]Adèle Thorens Goumaz (GPS)",
        "#votes": "47674",
        "Committee 1": "1",
        "id": "46898",
        "suggestions": [
            "46898"
        ]
    },
    {
        "Name": "[46899]Daniel Brélaz (GPS)",
        "#votes": "37667",
        "Committee 1": "1",
        "id": "46899",
        "suggestions": [
            "46899"
        ]
    },
    {
        "Name": "[46900]Léonore Porchet (GPS)",
        "#votes": "30860",
        "Committee 1": "1",
        "id": "46900",
        "suggestions": [
            "46900"
        ]
    },
    {
        "Name": "[46909]Sophie Michaud Gigon (GPS)",
        "#votes": "32205",
        "Committee 1": "1",
        "id": "46909",
        "suggestions": [
            "46909"
        ]
    },
    {
        "Name": "[47054]Olivier Français (FDP)",
        "#votes": "50328",
        "Committee 1": "1",
        "id": "47054",
        "suggestions": [
            "47054"
        ]
    },
    {
        "Name": "[48015]Frédéric Borloz (FDP)",
        "#votes": "40962",
        "Committee 1": "1",
        "id": "48015",
        "suggestions": [
            "48015"
        ]
    },
    {
        "Name": "[48078]Olivier Feller (FDP)",
        "#votes": "46542",
        "Committee 1": "1",
        "id": "48078",
        "suggestions": [
            "48078"
        ]
    },
    {
        "Name": "[48011]Isabelle Moret (FDP)",
        "#votes": "48664",
        "Committee 1": "1",
        "id": "48011",
        "suggestions": [
            "48011"
        ]
    },
    {
        "Name": "[48016]Jacqueline de Quattro (FDP)",
        "#votes": "44996",
        "Committee 1": "1",
        "id": "48016",
        "suggestions": [
            "48016"
        ]
    },
    {
        "Name": "[47685]Mathias Reynard (SP)",
        "#votes": "34175",
        "Committee 1": "1",
        "id": "47685",
        "suggestions": [
            "47685"
        ]
    },
    {
        "Name": "[47210]Benjamin Roduit (CVP)",
        "#votes": "25601",
        "Committee 1": "1",
        "id": "47210",
        "suggestions": [
            "47210"
        ]
    },
    {
        "Name": "[47207]Sidney Kamerzin (CVP)",
        "#votes": "25602",
        "Committee 1": "1",
        "id": "47207",
        "suggestions": [
            "47207"
        ]
    },
    {
        "Name": "[46694]Jean-Luc Addor (SVP)",
        "#votes": "17535",
        "Committee 1": "1",
        "id": "46694",
        "suggestions": [
            "46694"
        ]
    },
    {
        "Name": "[46615]Franz Ruppen (SVP)",
        "#votes": "25493",
        "Committee 1": "1",
        "id": "46615",
        "suggestions": [
            "46615"
        ]
    },
    {
        "Name": "[47177]Philipp Matthias Bregy (CVP)",
        "#votes": "21689",
        "Committee 1": "1",
        "id": "47177",
        "suggestions": [
            "47177"
        ]
    },
    {
        "Name": "[47762]Christophe Clivaz (GPS)",
        "#votes": "17377",
        "Committee 1": "1",
        "id": "47762",
        "suggestions": [
            "47762"
        ]
    },
    {
        "Name": "[48022]Philippe Nantermod (FDP)",
        "#votes": "27906",
        "Committee 1": "1",
        "id": "48022",
        "suggestions": [
            "48022"
        ]
    },
    {
        "Name": "[48072]Damien Cottier (FDP)",
        "#votes": "9343",
        "Committee 1": "1",
        "id": "48072",
        "suggestions": [
            "48072"
        ]
    },
    {
        "Name": "[47576]Baptiste Hurni (SP)",
        "#votes": "8693",
        "Committee 1": "1",
        "id": "47576",
        "suggestions": [
            "47576"
        ]
    },
    {
        "Name": "[49134]Denis de la Reussille (PdA/Sol.)",
        "#votes": "9761",
        "Committee 1": "1",
        "id": "49134",
        "suggestions": [
            "49134"
        ]
    },
    {
        "Name": "[46589]Fabien Fivaz (GPS)",
        "#votes": "10753",
        "Committee 1": "1",
        "id": "46589",
        "suggestions": [
            "46589"
        ]
    },
    {
        "Name": "[50026]Céline Amaudruz (SVP)",
        "#votes": "16434",
        "Committee 1": "1",
        "id": "50026",
        "suggestions": [
            "50026"
        ]
    },
    {
        "Name": "[50033]Yves Nidegger (SVP)",
        "#votes": "15398",
        "Committee 1": "1",
        "id": "50033",
        "suggestions": [
            "50033"
        ]
    },
    {
        "Name": "[47571]Laurence Fehlmann Rielle (SP)",
        "#votes": "27938",
        "Committee 1": "1",
        "id": "47571",
        "suggestions": [
            "47571"
        ]
    },
    {
        "Name": "[47572]Christian Dandrès (SP)",
        "#votes": "27386",
        "Committee 1": "1",
        "id": "47572",
        "suggestions": [
            "47572"
        ]
    },
    {
        "Name": "[46529]Lisa Mazzone (GPS)",
        "#votes": "29154",
        "Committee 1": "1",
        "id": "46529",
        "suggestions": [
            "46529"
        ]
    },
    {
        "Name": "[46530]Nicolas Walder (GPS)",
        "#votes": "21310",
        "Committee 1": "1",
        "id": "46530",
        "suggestions": [
            "46530"
        ]
    },
    {
        "Name": "[46544]Delphine Klopfenstein Broggini (GPS)",
        "#votes": "20026",
        "Committee 1": "1",
        "id": "46544",
        "suggestions": [
            "46544"
        ]
    },
    {
        "Name": "[48075]Christian Lüscher (FDP)",
        "#votes": "35081",
        "Committee 1": "1",
        "id": "48075",
        "suggestions": [
            "48075"
        ]
    },
    {
        "Name": "[48070]Simone De Montmollin (FDP)",
        "#votes": "32402",
        "Committee 1": "1",
        "id": "48070",
        "suggestions": [
            "48070"
        ]
    },
    {
        "Name": "[48536]Vincent Maitre (CVP)",
        "#votes": "15285",
        "Committee 1": "1",
        "id": "48536",
        "suggestions": [
            "48536"
        ]
    },
    {
        "Name": "[50079]Jocelyne Haller (PdA/Sol.)",
        "#votes": "5163",
        "Committee 1": "1",
        "id": "50079",
        "suggestions": [
            "50079"
        ]
    },
    {
        "Name": "[46519]Michel Matter (GLP)",
        "#votes": "10781",
        "Committee 1": "1",
        "id": "46519",
        "suggestions": [
            "46519"
        ]
    },
    {
        "Name": "[47575]Pierre-Alain Fridez (SP)",
        "#votes": "6487",
        "Committee 1": "1",
        "id": "47575",
        "suggestions": [
            "47575"
        ]
    },
    {
        "Name": "[48599]Jean-Paul Gschwind (CVP)",
        "#votes": "4622",
        "Committee 1": "1",
        "id": "48599",
        "suggestions": [
            "48599"
        ]
    }
]