Name,#votes,Committee 1
[46401]Sarah Degen (JG),827,
[46402]Pascal Zbinden (JG),755,
[46403]Guido Derungs (JG),558,
[46413]Meret Rehmann (JG),1629,
[46414]Maya Graf (Grüne),27141,1
[46415]Philipp Schoch (Grüne),12481,
[46416]Gian-Luca Baumgartner (JG),634,
[46417]Simone Meier (Grüne),8215,
[46418]Jonas Stadler (JG),930,
[46419]Bálint Csontos (Grüne),7520,
[46420]Dominik Beeler (Grüne),6752,
[46421]Florence Brenzikofer (Grüne),15902,
[46422]Anna-Tina Groelly (Grüne),7866,
[46423]Katalin Csontos (JG),731,
[46885]Balz Stückelberger (FDP),14224,1
[46887]Melchior Buchs (FDP),8143,
[46888]Saskia Schenker (FDP),15324,
[46889]Daniela Schneeberger (FDP),19071,
[46890]Christoph Buser (FDP),13697,
[46891]Marc Schinzel (FDP),7251,
[47148]Emanuel Trueb (CVP),3844,
[47149]Remo Oser (CVP),4376,
[47150]Béatrix von Sury d'Aspremont (CVP),4460,
[47151]Silvio Fareri (CVP),2909,
[47152]Elisabeth Schneider-Schneiter (CVP),13707,1
[47153]Felix Keller (CVP),3858,
[47154]Piero Grumelli (CVP),3334,
[50337]Michael Hofer (Parteilos),0,
[46886]Nicole Nüssli-Kaiser (FDP),8447,
[48574]Beat Von Scarpatetti (Grüne),406,
[47561]Dominik Merz (BDP),1159,
[47562]Denise Buser (BDP),1170,
[47563]Christoph Collins (BDP),1058,
[47564]Kevin Beining (BDP),640,
[47565]Marc Bürgi (BDP),861,
[47566]Esther Meisinger-Zanetti (BDP),690,
[47567]Beat Schmid (BDP),759,
[47619]Désirée Jaun (SP),10447,
[47646]Eric Nussbaumer (SP),29593,1
[47652]Sabine Asprion (SP),12856,
[47658]Samira Marti (SP),22993,1
[47671]Miriam Locher (SP),13864,
[47676]Andreas Bammatter-Z'graggen (SP),10734,
[47688]Sandra Strüby-Schaub (SP),10781,
[47993]Thomas de Courten (SVP),24498,1
[47994]Dominik Straumann (SVP),17189,
[47995]Reto Tschudin (SVP),15550,
[48050]Caroline Mall (SVP),15693,
[48053]Andreas Spindler (SVP),14051,
[48055]Sandra Sollberger (SVP),25653,1
[48058]Jacqueline Wunderer (SVP),15516,
[48504]Norbey Hueber (JCVP),355,
[48505]Eduard Muqaj (JCVP),258,
[48506]Marie-Caroline Messerli (JCVP),551,
[48507]Sybilla Glutz (CVP),288,
[48530]Franziska Egloff-Schraner (CVP),1084,
[48531]Stefan Fraefel (CVP),407,
[48532]Dario Rigo (CVP),371,
[48533]Marco Muro (JCVP),837,
[48535]Julia Schneider (JCVP),499,
[48539]Nadja Lüthi (JCVP),888,
[48540]Patrick Borer (CVP),739,
[48542]Patricia Bräutigam (JCVP),850,
[48554]Giovanna Lanza (CVP),790,
[48569]Arnold Amacher (Grüne),1071,
[48570]Peter Erbacher (Grüne),515,
[48571]Madeleine Göschke-Chiquet (Grüne),685,
[48572]Irène Stübi (Grüne),330,
[48573]Marie-Theres Beeler (Grüne),760,
[48575]Lotti Stokar (Grüne),871,
[48955]Lucio Sansano (jf),277,
[48956]Sebastian Binggeli (jf),321,
[48957]Niels Jurt (jf),245,
[48958]Lisa Söll (jf),145,
[48959]Annick Pietzonka (jf),131,
[48960]Melvin Imhof (jf),158,
[48961]Adrian Lipkovits (jf),94,
[49357]Sara Fritz (EVP),2114,
[49358]Katrin Oser (EVP),486,
[49359]Timon Zingg (EVP),252,
[49360]Michael Thommen (EVP),281,
[49361]Anna Blaser (EVP),512,
[49362]Martin Geiser-Meyer (EVP),1881,
[49363]Andrea Heger-Weber (EVP),2135,
[49364]Elisabeth Augstburger (EVP),4369,
[49365]Lukas Keller (EVP),1818,
[49367]Werner Hotz-Celotto (EVP),1780,
[49368]Daniel Kaderli (EVP),1747,
[49369]Micha Eglin (EVP),725,
[49370]Claudia Laager-Schüpbach (EVP),390,
[49371]Sonja Niederhauser-Müller (EVP),372,
[49627]Nicole Roth (JSVP),1037,
[49628]Fabienne Sutter (JSVP),773,
[49629]Philipp Völlmin (JSVP),578,
[49630]Robin Kühn (JSVP),322,
[49631]Nandor Frey (JSVP),413,
[49632]Marc Schenk (JSVP),354,
[49633]Pavel Mischa Bürgler (JSVP),363,
[49716]Nina Eldridge (jglp),1153,
[49717]Jonas Ferro (jglp),686,
[49718]Melina Kaeser (jglp),808,
[49719]Yves Jenni (jglp),812,
[49720]Manuel Fabry (jglp),849,
[49721]Domenic Schneider (glp),2519,
[49722]Thomas Tribelhorn (glp),3957,
[49723]Alessandro Giangreco (jglp),493,
[49724]Patrick Wolfgang (jglp),524,
[49725]Cécile Grüninger-Deiss (glp),3190,
[49726]Sandie Collins (glp),2602,
[49727]Manuel Ballmer (glp),3421,
[49728]Tanja Haller (glp),4361,
[49729]Jean-Jacques Welz (glp),2759,
[49844]Nils Jocher (JUSO),558,
[49845]Nisha Thangeswaran (JUSO),287,
[49846]Ronja Jansen (JUSO),855,
[49847]Céline Gass (JUSO),260,
[49848]Jonas Brunner (JUSO),229,
[49849]Katja Schwab (JUSO),347,
[49850]Maurice Koller (JUSO),296,
[49851]Tobias Schaub (JUSO),316,
[49852]Anna Holm (JUSO),478,
[49853]Flavia Graber (JUSO),361,
[49854]Laura Pippia (JUSO),359,
[49855]Noam Schaulin (JUSO),223,
[49856]Basil Brüggemann (JUSO),479,
[49857]Jasmine Bosshard (JUSO),413,
[50336]Myrian Kobler-Betancourt (CVP),366,
